^C:\Users\kyriakoskoukoutis\Documents\streamingplayer\AudioClient\AudioClient\AudioClient.vcxproj
C:\Users\kyriakoskoukoutis\Documents\streamingplayer\AudioClient\x64\Release\AudioClient.ipdb
C:\Users\kyriakoskoukoutis\Documents\streamingplayer\AudioClient\x64\Release\AudioClient.iobj
