^C:\USERS\KYRIAKOSKOUKOUTIS\DOCUMENTS\STREAMINGPLAYER\AUDIOCLIENT\AUDIOCLIENT\X64\RELEASE\AUDIOCLIENT.OBJ|C:\USERS\KYRIAKOSKOUKOUTIS\DOCUMENTS\STREAMINGPLAYER\AUDIOCLIENT\AUDIOCLIENT\X64\RELEASE\DATA.OBJ|C:\USERS\KYRIAKOSKOUKOUTIS\DOCUMENTS\STREAMINGPLAYER\AUDIOCLIENT\AUDIOCLIENT\X64\RELEASE\DATAQUEUE.OBJ|C:\USERS\KYRIAKOSKOUKOUTIS\DOCUMENTS\STREAMINGPLAYER\AUDIOCLIENT\AUDIOCLIENT\X64\RELEASE\DIRECTSOUND.OBJ|C:\USERS\KYRIAKOSKOUKOUTIS\DOCUMENTS\STREAMINGPLAYER\AUDIOCLIENT\AUDIOCLIENT\X64\RELEASE\SESSION.OBJ
C:\WINDOWS\GLOBALIZATION\SORTING\SORTDEFAULT.NLS
C:\PROGRAM FILES (X86)\WINDOWS KITS\10\LIB\10.0.16299.0\UM\X64\KERNEL32.LIB
C:\PROGRAM FILES (X86)\WINDOWS KITS\10\LIB\10.0.16299.0\UM\X64\USER32.LIB
C:\PROGRAM FILES (X86)\WINDOWS KITS\10\LIB\10.0.16299.0\UM\X64\GDI32.LIB
C:\PROGRAM FILES (X86)\WINDOWS KITS\10\LIB\10.0.16299.0\UM\X64\WINSPOOL.LIB
C:\PROGRAM FILES (X86)\WINDOWS KITS\10\LIB\10.0.16299.0\UM\X64\COMDLG32.LIB
C:\PROGRAM FILES (X86)\WINDOWS KITS\10\LIB\10.0.16299.0\UM\X64\ADVAPI32.LIB
C:\PROGRAM FILES (X86)\WINDOWS KITS\10\LIB\10.0.16299.0\UM\X64\SHELL32.LIB
C:\PROGRAM FILES (X86)\WINDOWS KITS\10\LIB\10.0.16299.0\UM\X64\OLE32.LIB
C:\PROGRAM FILES (X86)\WINDOWS KITS\10\LIB\10.0.16299.0\UM\X64\OLEAUT32.LIB
C:\PROGRAM FILES (X86)\WINDOWS KITS\10\LIB\10.0.16299.0\UM\X64\UUID.LIB
C:\PROGRAM FILES (X86)\WINDOWS KITS\10\LIB\10.0.16299.0\UM\X64\ODBC32.LIB
C:\PROGRAM FILES (X86)\WINDOWS KITS\10\LIB\10.0.16299.0\UM\X64\ODBCCP32.LIB
C:\USERS\KYRIAKOSKOUKOUTIS\DOCUMENTS\STREAMINGPLAYER\AUDIOCLIENT\AUDIOCLIENT\X64\RELEASE\DATAQUEUE.OBJ
C:\USERS\KYRIAKOSKOUKOUTIS\DOCUMENTS\STREAMINGPLAYER\AUDIOCLIENT\AUDIOCLIENT\X64\RELEASE\DIRECTSOUND.OBJ
C:\USERS\KYRIAKOSKOUKOUTIS\DOCUMENTS\STREAMINGPLAYER\AUDIOCLIENT\AUDIOCLIENT\X64\RELEASE\AUDIOCLIENT.OBJ
C:\USERS\KYRIAKOSKOUKOUTIS\DOCUMENTS\STREAMINGPLAYER\AUDIOCLIENT\AUDIOCLIENT\X64\RELEASE\DATA.OBJ
C:\USERS\KYRIAKOSKOUKOUTIS\DOCUMENTS\STREAMINGPLAYER\AUDIOCLIENT\AUDIOCLIENT\X64\RELEASE\SESSION.OBJ
C:\PROGRAM FILES (X86)\MICROSOFT VISUAL STUDIO\2017\COMMUNITY\VC\TOOLS\MSVC\14.12.25827\BIN\HOSTX86\X64\C2.DLL
C:\PROGRAM FILES (X86)\MICROSOFT VISUAL STUDIO\2017\COMMUNITY\VC\TOOLS\MSVC\14.12.25827\LIB\X64\MSVCRT.LIB
C:\PROGRAM FILES (X86)\MICROSOFT VISUAL STUDIO\2017\COMMUNITY\VC\TOOLS\MSVC\14.12.25827\LIB\X64\OLDNAMES.LIB
C:\PROGRAM FILES (X86)\WINDOWS KITS\10\LIB\10.0.16299.0\UM\X64\DSOUND.LIB
C:\PROGRAM FILES (X86)\WINDOWS KITS\10\LIB\10.0.16299.0\UM\X64\DXGUID.LIB
C:\PROGRAM FILES (X86)\WINDOWS KITS\10\LIB\10.0.16299.0\UM\X64\WINMM.LIB
C:\PROGRAM FILES (X86)\MICROSOFT VISUAL STUDIO\2017\COMMUNITY\VC\TOOLS\MSVC\14.12.25827\LIB\X64\MSVCPRT.LIB
C:\PROGRAM FILES (X86)\WINDOWS KITS\10\LIB\10.0.16299.0\UM\X64\WS2_32.LIB
C:\PROGRAM FILES (X86)\MICROSOFT VISUAL STUDIO\2017\COMMUNITY\VC\TOOLS\MSVC\14.12.25827\LIB\X64\VCRUNTIME.LIB
C:\PROGRAM FILES (X86)\WINDOWS KITS\10\LIB\10.0.16299.0\UCRT\X64\UCRT.LIB
C:\PROGRAM FILES (X86)\MICROSOFT VISUAL STUDIO\2017\COMMUNITY\VC\TOOLS\MSVC\14.12.25827\BIN\HOSTX86\X64\1033\LINKUI.DLL
C:\PROGRAM FILES (X86)\WINDOWS KITS\10\BIN\10.0.16299.0\X86\RC.EXE
C:\PROGRAM FILES (X86)\MICROSOFT VISUAL STUDIO\2017\COMMUNITY\VC\TOOLS\MSVC\14.12.25827\BIN\HOSTX86\X86\CVTRES.EXE
